4 Bayesian modelling | Exam project
…
## # A tibble: 2 x 2
##   sign       n
##   <chr>  <int>
## 1 NoSign   123
## 2 Sign      25

Out of 148 primary schools, only 25 schools show to have somewhat an effect on the score.

These are such schools:

fit_lin_sum_alphas %>% filter(sign == 'Sign')

## # A tibble: 25 x 12
##    param    mean se_mean    sd   `2.5%`   `25%`  `50%`   `75%` `97.5%`
##    <chr>   <dbl>   <dbl> <dbl>    <dbl>   <dbl>  <dbl>   <dbl>   <dbl>
##  1 alph~   8.77  0.121   6.21    0.290    4.04   7.42   12.2    23.4  
##  2 alph~   1.20  0.00485 0.353   0.528    0.951  1.20    1.44    1.88 
##  3 alph~  -0.992 0.00552 0.446  -1.85    -1.30  -0.993  -0.694  -0.105
##  4 alph~   0.859 0.00541 0.446   0.0198   0.554  0.846   1.16    1.74 
##  5 alph~   1.85  0.00993 0.715   0.542    1.35   1.81    2.30    3.34 
##  6 alph~  -9.76  0.115   5.78  -23.0    -13.2   -8.54   -5.36   -1.93 
##  7 alph~  10.1   0.137   6.00    1.97     5.53   8.77   13.3    24.8  
##  8 alph~   1.12  0.00511 0.382   0.396    0.872  1.12    1.37    1.87 
##  9 alph~   1.29  0.00576 0.452   0.419    0.990  1.29    1.59    2.17 
## 10 alph~   1.11  0.00436 0.337   0.470    0.886  1.11    1.34    1.80 
## # ... with 15 more rows, and 3 more variables: n_eff <dbl>, Rhat <dbl>,
## #   sign <chr>
…
